{"statusCode":200,"headers":{"Date":["Sun, 23 Oct 2022 21:37:12 GMT"],"Content-Type":["application\/json; charset=utf-8"],"Transfer-Encoding":["chunked"],"Connection":["keep-alive"],"access-control-allow-origin":["*"],"Cache-Control":["public, max-age=86400, s-maxage=86400"],"etag":["W\/\"588-qbrj+tbgHm1iYPl6MrxI39gDsdo\""],"function-execution-id":["9iflkqfrbgy4"],"strict-transport-security":["max-age=31556926"],"x-cloud-trace-context":["641bf7e98601aee20a77571a98f9359c"],"x-country-code":["GB"],"x-powered-by":["Express"],"x-served-by":["cache-man4123-MAN"],"x-cache":["HIT"],"x-cache-hits":["1"],"x-timer":["S1666545306.180756,VS0,VE4"],"vary":["Accept-Encoding,cookie,need-authorization, x-fh-requested-host, accept-encoding"],"alt-svc":["h3=\":443\"; ma=86400, h3-29=\":443\"; ma=86400"],"CF-Cache-Status":["HIT"],"Age":["15726"],"Server-Timing":["cf-q-config;dur=6.0000020312145e-06"],"Report-To":["{\"endpoints\":[{\"url\":\"https:\\\/\\\/a.nel.cloudflare.com\\\/report\\\/v3?s=AV%2BIEy0Os1gN7wxo8SJy1KDaqrCJla3fTROatehHZbjXX69aRxoezRQFkVDTnixR9ycynq9FWuyugzRj8wAEQdP7zw7eHZDXwoAzE55zYqySIojgQCqjvVtuEffo\"}],\"group\":\"cf-nel\",\"max_age\":604800}"],"NEL":["{\"success_fraction\":0,\"report_to\":\"cf-nel\",\"max_age\":604800}"],"Server":["cloudflare"],"CF-RAY":["75ed9cd6ff1e35ef-MAN"]},"data":"{\"count\":1154,\"next\":\"https:\/\/pokeapi.co\/api\/v2\/pokemon?offset=20&limit=20\",\"previous\":null,\"results\":[{\"name\":\"bulbasaur\",\"url\":\"https:\/\/pokeapi.co\/api\/v2\/pokemon\/1\/\"},{\"name\":\"ivysaur\",\"url\":\"https:\/\/pokeapi.co\/api\/v2\/pokemon\/2\/\"},{\"name\":\"venusaur\",\"url\":\"https:\/\/pokeapi.co\/api\/v2\/pokemon\/3\/\"},{\"name\":\"charmander\",\"url\":\"https:\/\/pokeapi.co\/api\/v2\/pokemon\/4\/\"},{\"name\":\"charmeleon\",\"url\":\"https:\/\/pokeapi.co\/api\/v2\/pokemon\/5\/\"},{\"name\":\"charizard\",\"url\":\"https:\/\/pokeapi.co\/api\/v2\/pokemon\/6\/\"},{\"name\":\"squirtle\",\"url\":\"https:\/\/pokeapi.co\/api\/v2\/pokemon\/7\/\"},{\"name\":\"wartortle\",\"url\":\"https:\/\/pokeapi.co\/api\/v2\/pokemon\/8\/\"},{\"name\":\"blastoise\",\"url\":\"https:\/\/pokeapi.co\/api\/v2\/pokemon\/9\/\"},{\"name\":\"caterpie\",\"url\":\"https:\/\/pokeapi.co\/api\/v2\/pokemon\/10\/\"},{\"name\":\"metapod\",\"url\":\"https:\/\/pokeapi.co\/api\/v2\/pokemon\/11\/\"},{\"name\":\"butterfree\",\"url\":\"https:\/\/pokeapi.co\/api\/v2\/pokemon\/12\/\"},{\"name\":\"weedle\",\"url\":\"https:\/\/pokeapi.co\/api\/v2\/pokemon\/13\/\"},{\"name\":\"kakuna\",\"url\":\"https:\/\/pokeapi.co\/api\/v2\/pokemon\/14\/\"},{\"name\":\"beedrill\",\"url\":\"https:\/\/pokeapi.co\/api\/v2\/pokemon\/15\/\"},{\"name\":\"pidgey\",\"url\":\"https:\/\/pokeapi.co\/api\/v2\/pokemon\/16\/\"},{\"name\":\"pidgeotto\",\"url\":\"https:\/\/pokeapi.co\/api\/v2\/pokemon\/17\/\"},{\"name\":\"pidgeot\",\"url\":\"https:\/\/pokeapi.co\/api\/v2\/pokemon\/18\/\"},{\"name\":\"rattata\",\"url\":\"https:\/\/pokeapi.co\/api\/v2\/pokemon\/19\/\"},{\"name\":\"raticate\",\"url\":\"https:\/\/pokeapi.co\/api\/v2\/pokemon\/20\/\"}]}"}